[gd_scene load_steps=4 format=2]

[ext_resource path="res://scenes/Characters.tscn" type="PackedScene" id=1]
[ext_resource path="res://scripts/Origin.gd" type="Script" id=2]
[ext_resource path="res://scenes/Floor.tscn" type="PackedScene" id=3]

[node name="origin" type="Node2D"]
script = ExtResource( 2 )

[node name="Characters" parent="." instance=ExtResource( 1 )]

[node name="Floor" parent="." instance=ExtResource( 3 )]
show_behind_parent = true
